Part2-Building a memory hierarchy/lab6/cpu_wavedata.vcd
$date
	Tue Dec  1 22:15:44 2020
$end
$version
	Icarus Verilog
$end
$timescale
	100ps
$end
$scope module cpu_tb $end
$var wire 8 ! ADDRESS [7:0] $end
$var wire 1 " BUSYWAIT $end
$var wire 1 # BUSYWAIT_INSTR $end
$var wire 32 $ INSTRUCTION [31:0] $end
$var wire 32 % PC [31:0] $end
$var wire 1 & READ $end
$var wire 8 ' READDATA [7:0] $end
$var wire 1 ( WRITE $end
$var wire 8 ) WRITEDATA [7:0] $end
$var wire 6 * instr_address [5:0] $end
$var wire 1 + instr_busywait $end
$var wire 1 , instr_read $end
$var wire 128 - instr_readdata [127:0] $end
$var wire 6 . mem_address [5:0] $end
$var wire 1 / mem_busywait $end
$var wire 1 0 mem_read $end
$var wire 32 1 mem_readdata [31:0] $end
$var wire 1 2 mem_write $end
$var wire 32 3 mem_writedata [31:0] $end
$var reg 1 4 CLK $end
$var reg 1 5 RESET $end
$scope module mycpu $end
$var wire 8 6 ALURESULT [7:0] $end
$var wire 1 " BUSYWAIT $end
$var wire 1 # BUSYWAIT_INSTR $end
$var wire 1 7 CLK $end
$var wire 8 8 COMPLEMENT [7:0] $end
$var wire 32 9 INSTRUCTION [31:0] $end
$var wire 8 : MUX1OUT [7:0] $end
$var wire 8 ; MUXOUT0 [7:0] $end
$var wire 1 < NEWWRITEENABLE $end
$var wire 8 = OPERAND2 [7:0] $end
$var wire 32 > PC2 [31:0] $end
$var wire 32 ? PC3 [31:0] $end
$var wire 8 @ READDATA [7:0] $end
$var wire 8 A REGOUT1 [7:0] $end
$var wire 8 B REGOUT2 [7:0] $end
$var wire 1 C RESET $end
$var wire 1 D ZERO $end
$var wire 32 E addout [31:0] $end
$var wire 32 F extendout [31:0] $end
$var wire 10 G shiftout [9:0] $end
$var reg 8 H ADDRESS [7:0] $end
$var reg 3 I ALUOP [2:0] $end
$var reg 8 J IMMEDIATE [7:0] $end
$var reg 8 K OFFSET [7:0] $end
$var reg 4 L OPCODE [3:0] $end
$var reg 32 M PC [31:0] $end
$var reg 32 N PC0 [31:0] $end
$var reg 1 O READ $end
$var reg 3 P READREG1 [2:0] $end
$var reg 3 Q READREG2 [2:0] $end
$var reg 1 R SELECT1 $end
$var reg 1 S SELECT2 $end
$var reg 1 T SELECT3 $end
$var reg 1 U SELECT4 $end
$var reg 1 V WRITE $end
$var reg 8 W WRITEDATA [7:0] $end
$var reg 1 X WRITEENABLE $end
$var reg 3 Y WRITEREG [2:0] $end
$scope module file1 $end
$var wire 1 7 CLK $end
$var wire 8 Z IN [7:0] $end
$var wire 3 [ INADDRESS [2:0] $end
$var wire 3 \ OUT1ADDRESS [2:0] $end
$var wire 3 ] OUT2ADDRESS [2:0] $end
$var wire 1 C RESET $end
$var wire 1 < WRITE $end
$var reg 8 ^ OUT1 [7:0] $end
$var reg 8 _ OUT2 [7:0] $end
$upscope $end
$scope module mux1 $end
$var wire 8 ` in1 [7:0] $end
$var wire 8 a in2 [7:0] $end
$var wire 1 b select $end
$var reg 8 c out [7:0] $end
$upscope $end
$scope module mux2 $end
$var wire 8 d in1 [7:0] $end
$var wire 8 e in2 [7:0] $end
$var wire 1 f select $end
$var reg 8 g out [7:0] $end
$upscope $end
$scope module alu1 $end
$var wire 8 h DATA1 [7:0] $end
$var wire 8 i DATA2 [7:0] $end
$var wire 3 j SELECT [2:0] $end
$var wire 1 D ZERO $end
$var wire 8 k result_add [7:0] $end
$var wire 8 l result_and [7:0] $end
$var wire 8 m result_fwd [7:0] $end
$var wire 8 n result_or [7:0] $end
$var reg 8 o RESULT [7:0] $end
$scope module fwd $end
$var wire 8 p DATA2 [7:0] $end
$var wire 8 q RESULT_1 [7:0] $end
$upscope $end
$scope module add $end
$var wire 8 r DATA1 [7:0] $end
$var wire 8 s DATA2 [7:0] $end
$var wire 8 t RESULT_2 [7:0] $end
$upscope $end
$scope module and0 $end
$var wire 8 u DATA1 [7:0] $end
$var wire 8 v DATA2 [7:0] $end
$var wire 8 w RESULT_3 [7:0] $end
$upscope $end
$scope module or0 $end
$var wire 8 x DATA1 [7:0] $end
$var wire 8 y DATA2 [7:0] $end
$var wire 8 z RESULT_4 [7:0] $end
$upscope $end
$upscope $end
$scope module shift1 $end
$var wire 8 { in [7:0] $end
$var reg 10 | out [9:0] $end
$upscope $end
$scope module extend1 $end
$var wire 10 } in [9:0] $end
$var reg 32 ~ out [31:0] $end
$upscope $end
$scope module add $end
$var wire 32 !" INSTRUCTION [31:0] $end
$var wire 32 "" offset [31:0] $end
$var wire 32 #" pc [31:0] $end
$var reg 32 $" out [31:0] $end
$upscope $end
$scope module mux3 $end
$var wire 32 %" in1 [31:0] $end
$var wire 32 &" in2 [31:0] $end
$var wire 1 '" select1 $end
$var reg 32 (" out1 [31:0] $end
$upscope $end
$scope module mux4 $end
$var wire 32 )" in1 [31:0] $end
$var wire 32 *" in2 [31:0] $end
$var wire 1 D select1 $end
$var reg 32 +" out1 [31:0] $end
$upscope $end
$scope module mux5 $end
$var wire 8 ," in1 [7:0] $end
$var wire 8 -" in2 [7:0] $end
$var wire 1 ." select $end
$var reg 8 /" out [7:0] $end
$upscope $end
$upscope $end
$scope module mem1 $end
$var wire 6 0" address [5:0] $end
$var wire 1 7 clock $end
$var wire 1 0 read $end
$var wire 1 C reset $end
$var wire 1 2 write $end
$var wire 32 1" writedata [31:0] $end
$var reg 1 2" busywait $end
$var integer 32 3" i [31:0] $end
$var reg 1 4" readaccess $end
$var reg 32 5" readdata [31:0] $end
$var reg 1 6" writeaccess $end
$upscope $end
$scope module mem2 $end
$var wire 8 7" ADDRESS [7:0] $end
$var wire 1 & READ $end
$var wire 1 ( WRITE $end
$var wire 8 8" WRITEDATA [7:0] $end
$var wire 1 7 clock $end
$var wire 1 / mem_busywait $end
$var wire 32 9" mem_readdata [31:0] $end
$var wire 1 C reset $end
$var reg 8 :" READDATA [7:0] $end
$var reg 3 ;" block_tag [2:0] $end
$var reg 1 <" busywait $end
$var reg 32 =" data_block [31:0] $end
$var reg 1 >" dirty $end
$var reg 8 ?" dirty_bits [7:0] $end
$var reg 1 @" hit $end
$var reg 3 A" index [2:0] $end
$var reg 6 B" mem_address [5:0] $end
$var reg 1 C" mem_read $end
$var reg 1 D" mem_write $end
$var reg 32 E" mem_writedata [31:0] $end
$var reg 3 F" next_state [2:0] $end
$var reg 2 G" offset [1:0] $end
$var reg 1 H" read $end
$var reg 3 I" state [2:0] $end
$var reg 3 J" tag [2:0] $end
$var reg 1 K" valid $end
$var reg 8 L" valid_bits [7:0] $end
$var reg 8 M" word [7:0] $end
$var reg 1 N" write $end
$upscope $end
$scope module instr1 $end
$var wire 6 O" address [5:0] $end
$var wire 1 7 clock $end
$var wire 1 , read $end
$var reg 1 P" busywait $end
$var reg 1 Q" readaccess $end
$var reg 128 R" readinst [127:0] $end
$upscope $end
$scope module instr2 $end
$var wire 10 S" ADDRESS [9:0] $end
$var wire 32 T" PC [31:0] $end
$var wire 1 7 clock $end
$var wire 3 U" index [2:0] $end
$var wire 1 + instr_busywait $end
$var wire 128 V" instr_readdata [127:0] $end
$var wire 2 W" offset [1:0] $end
$var wire 1 C reset $end
$var wire 3 X" tag [2:0] $end
$var reg 1 Y" BUSYWAIT_INSTR $end
$var reg 32 Z" INSTRUCTION [31:0] $end
$var reg 3 [" block_tag [2:0] $end
$var reg 128 \" data_block [127:0] $end
$var reg 1 ]" hit $end
$var reg 6 ^" instr_address [5:0] $end
$var reg 1 _" instr_read $end
$var reg 3 `" next_state [2:0] $end
$var reg 3 a" state [2:0] $end
$var reg 1 b" valid $end
$var reg 8 c" valid_bits [7:0] $end
$var reg 32 d" word [31:0] $end
$upscope $end
$upscope $end
$enddefinitions $end
#0
$dumpvars
bx d"
b0 c"
xb"
b0 a"
b0 `"
0_"
bx ^"
x]"
bx \"
bx ["
bx Z"
0Y"
bx X"
bx W"
bx V"
bx U"
bx T"
bx S"
bx R"
0Q"
0P"
bx O"
xN"
bx M"
b0 L"
xK"
bz J"
b0 I"
xH"
bz G"
b0 F"
bx E"
0D"
0C"
bx B"
bz A"
x@"
b0 ?"
x>"
bx ="
0<"
bx ;"
bx :"
bx 9"
bx 8"
bz 7"
06"
bx 5"
04"
b100000000 3"
02"
bx 1"
bx 0"
bz /"
x."
bz -"
bx ,"
bx +"
bx *"
bx )"
bx ("
x'"
bx &"
bx %"
bx $"
bx #"
bx ""
bx !"
bx ~
bx }
bx |
bx {
bx z
bx y
bx x
bx w
bx v
bx u
bx t
bx s
bx r
bx q
bx p
bz o
bx n
bx m
bx l
bx k
bx j
bx i
bx h
bx g
xf
bx e
bx d
bx c
xb
bx a
bx `
bx _
bx ^
bx ]
bx \
bx [
bz Z
bx Y
xX
bx W
0V
xU
xT
xS
xR
bx Q
bx P
0O
bx N
bx M
bx L
bx K
bx J
bx I
bz H
bx G
bx F
bx E
xD
1C
bx B
bx A
bx @
bx ?
bx >
bx =
x<
bz ;
bx :
bx 9
bx 8
07
bz 6
15
04
bx 3
02
bx 1
00
0/
bx .
bx -
0,
0+
bx *
bx )
0(
bx '
0&
bx %
bx $
0#
0"
bz !
$end
#10
b1 `"
0@"
1Y"
1#
0]"
#40
14
17
#50
b0 ^"
b0 *
b0 O"
1Q"
1P"
1+
b0 W"
b0 U"
b0 X"
1_"
1,
b1 `"
b0 S"
b1 a"
b0 M
b0 %
b0 T"
05
0C
#60
b100 +"
b100 ?
b100 ("
b100 >
b100 )"
0b"
b100 N
b100 #"
b100 &"
b100 *"
#80
04
07
#120
14
17
#160
04
07
#200
14
17
#240
04
07
#280
14
17
#320
04
07
#360
14
17
#400
04
07
#440
14
17
#480
04
07
#520
14
17
bx00001001 R"
bx00001001 -
bx00001001 V"
#530
b1 c"
1b"
b0 ["
bx00001001 \"
#540
bx00001001 d"
#560
04
07
#600
14
17
#640
04
07
#680
14
17
#720
04
07
#760
14
17
#800
04
07
#840
14
17
#880
04
07
#920
14
17
bx0000000000001001 R"
bx0000000000001001 -
bx0000000000001001 V"
#930
b1 c"
bx0000000000001001 \"
#940
bx0000000000001001 d"
#960
04
07
#1000
14
17
#1040
04
07
#1080
14
17
#1120
04
07
#1160
14
17
#1200
04
07
#1240
14
17
#1280
04
07
#1320
14
17
bx000000000000000000001001 R"
bx000000000000000000001001 -
bx000000000000000000001001 V"
#1330
b1 c"
bx000000000000000000001001 \"
#1340
bx000000000000000000001001 d"
#1360
04
07
#1400
14
17
#1440
04
07
#1480
14
17
#1520
04
07
#1560
14
17
#1600
04
07
#1640
14
17
#1680
04
07
#1720
14
17
bx00000101000000000000000000001001 R"
bx00000101000000000000000000001001 -
bx00000101000000000000000000001001 V"
#1730
b1 c"
bx00000101000000000000000000001001 \"
#1740
b101000000000000000000001001 d"
#1760
04
07
#1800
14
17
#1840
04
07
#1880
14
17
#1920
04
07
#1960
14
17
#2000
04
07
#2040
14
17
#2080
04
07
#2120
14
17
bx0000000100000101000000000000000000001001 R"
bx0000000100000101000000000000000000001001 -
bx0000000100000101000000000000000000001001 V"
#2130
b1 c"
bx0000000100000101000000000000000000001001 \"
#2160
04
07
#2200
14
17
#2240
04
07
#2280
14
17
#2320
04
07
#2360
14
17
#2400
04
07
#2440
14
17
#2480
04
07
#2520
14
17
bx000000000000000100000101000000000000000000001001 R"
bx000000000000000100000101000000000000000000001001 -
bx000000000000000100000101000000000000000000001001 V"
#2530
b1 c"
bx000000000000000100000101000000000000000000001001 \"
#2560
04
07
#2600
14
17
#2640
04
07
#2680
14
17
#2720
04
07
#2760
14
17
#2800
04
07
#2840
14
17
#2880
04
07
#2920
14
17
bx00000001000000000000000100000101000000000000000000001001 R"
bx00000001000000000000000100000101000000000000000000001001 -
bx00000001000000000000000100000101000000000000000000001001 V"
#2930
b1 c"
bx00000001000000000000000100000101000000000000000000001001 \"
#2960
04
07
#3000
14
17
#3040
04
07
#3080
14
17
#3120
04
07
#3160
14
17
#3200
04
07
#3240
14
17
#3280
04
07
#3320
14
17
bx0000010100000001000000000000000100000101000000000000000000001001 R"
bx0000010100000001000000000000000100000101000000000000000000001001 -
bx0000010100000001000000000000000100000101000000000000000000001001 V"
#3330
b1 c"
bx0000010100000001000000000000000100000101000000000000000000001001 \"
#3360
04
07
#3400
14
17
#3440
04
07
#3480
14
17
#3520
04
07
#3560
14
17
#3600
04
07
#3640
14
17
#3680
04
07
#3720
14
17
bx000000010000010100000001000000000000000100000101000000000000000000001001 R"
bx000000010000010100000001000000000000000100000101000000000000000000001001 -
bx000000010000010100000001000000000000000100000101000000000000000000001001 V"
#3730
b1 c"
bx000000010000010100000001000000000000000100000101000000000000000000001001 \"
#3760
04
07
#3800
14
17
#3840
04
07
#3880
14
17
#3920
04
07
#3960
14
17
#4000
04
07
#4040
14
17
#4080
04
07
#4120
14
17
bx00000000000000010000010100000001000000000000000100000101000000000000000000001001 R"
bx00000000000000010000010100000001000000000000000100000101000000000000000000001001 -
bx00000000000000010000010100000001000000000000000100000101000000000000000000001001 V"
#4130
b1 c"
bx00000000000000010000010100000001000000000000000100000101000000000000000000001001 \"
#4160
04
07
#4200
14
17
#4240
04
07
#4280
14
17
#4320
04
07
#4360
14
17
#4400
04
07
#4440
14
17
#4480
04
07
#4520
14
17
bx0000000000000000000000010000010100000001000000000000000100000101000000000000000000001001 R"
bx0000000000000000000000010000010100000001000000000000000100000101000000000000000000001001 -
bx0000000000000000000000010000010100000001000000000000000100000101000000000000000000001001 V"
#4530
b1 c"
bx0000000000000000000000010000010100000001000000000000000100000101000000000000000000001001 \"
#4560
04
07
#4600
14
17
#4640
04
07
#4680
14
17
#4720
04
07
#4760
14
17
#4800
04
07
#4840
14
17
#4880
04
07
#4920
14
17
bx000010100000000000000000000000010000010100000001000000000000000100000101000000000000000000001001 R"
bx000010100000000000000000000000010000010100000001000000000000000100000101000000000000000000001001 -
bx000010100000000000000000000000010000010100000001000000000000000100000101000000000000000000001001 V"
#4930
b1 c"
bx000010100000000000000000000000010000010100000001000000000000000100000101000000000000000000001001 \"
#4960
04
07
#5000
14
17
#5040
04
07
#5080
14
17
#5120
04
07
#5160
14
17
#5200
04
07
#5240
14
17
#5280
04
07
#5320
14
17
bx00000000000010100000000000000000000000010000010100000001000000000000000100000101000000000000000000001001 R"
bx00000000000010100000000000000000000000010000010100000001000000000000000100000101000000000000000000001001 -
bx00000000000010100000000000000000000000010000010100000001000000000000000100000101000000000000000000001001 V"
#5330
b1 c"
bx00000000000010100000000000000000000000010000010100000001000000000000000100000101000000000000000000001001 \"
#5360
04
07
#5400
14
17
#5440
04
07
#5480
14
17
#5520
04
07
#5560
14
17
#5600
04
07
#5640
14
17
#5680
04
07
#5720
14
17
bx0000000100000000000010100000000000000000000000010000010100000001000000000000000100000101000000000000000000001001 R"
bx0000000100000000000010100000000000000000000000010000010100000001000000000000000100000101000000000000000000001001 -
bx0000000100000000000010100000000000000000000000010000010100000001000000000000000100000101000000000000000000001001 V"
#5730
b1 c"
bx0000000100000000000010100000000000000000000000010000010100000001000000000000000100000101000000000000000000001001 \"
#5760
04
07
#5800
14
17
#5840
04
07
#5880
14
17
#5920
04
07
#5960
14
17
#6000
04
07
#6040
14
17
#6080
04
07
#6120
14
17
bx000000000000000100000000000010100000000000000000000000010000010100000001000000000000000100000101000000000000000000001001 R"
bx000000000000000100000000000010100000000000000000000000010000010100000001000000000000000100000101000000000000000000001001 -
bx000000000000000100000000000010100000000000000000000000010000010100000001000000000000000100000101000000000000000000001001 V"
#6130
b1 c"
bx000000000000000100000000000010100000000000000000000000010000010100000001000000000000000100000101000000000000000000001001 \"
#6160
04
07
#6200
14
17
#6240
04
07
#6280
14
17
#6320
04
07
#6360
14
17
#6400
04
07
#6440
14
17
#6480
04
07
#6520
0Y"
0#
bx ^"
bx *
bx O"
0_"
0,
b0 a"
b1 `"
14
17
0Q"
0P"
0+
b1011000000000000000100000000000010100000000000000000000000010000010100000001000000000000000100000101000000000000000000001001 R"
b1011000000000000000100000000000010100000000000000000000000010000010100000001000000000000000100000101000000000000000000001001 -
b1011000000000000000100000000000010100000000000000000000000010000010100000001000000000000000100000101000000000000000000001001 V"
#6530
b1 c"
b1011000000000000000100000000000010100000000000000000000000010000010100000001000000000000000100000101000000000000000000001001 \"
#6539
b0 `"
1]"
#6540
b0 ~
b0 F
b0 ""
b0 |
b0 G
b0 }
b101 L
b0 Y
b0 [
b0 P
b0 \
b1 Q
b1 ]
b0 K
b0 {
b1001 J
b1001 d
b101000000000000000000001001 Z"
b101000000000000000000001001 $
b101000000000000000000001001 9
b101000000000000000000001001 !"
#6550
bx J"
bx A"
bx G"
bx H
bx !
bx 7"
bx /"
bx ;
bx Z
1<
bx o
bx 6
bx -"
b1001 g
b1001 =
b1001 i
b1001 p
b1001 s
b1001 v
b1001 y
0U
0."
1X
b0 I
b0 j
0T
0'"
0R
0b
1S
1f
#6560
0D
b0 J"
b10 A"
b1 G"
b1001 /"
b1001 ;
b1001 Z
b1001 H
b1001 !
b1001 7"
b0 c
b0 :
b0 e
b1001 o
b1001 6
b1001 -"
b0 W
b0 )
b0 8"
b0x00x l
b0x00x w
bx1xx1 n
bx1xx1 z
b1001 m
b1001 q
b0 _
b0 B
b0 a
b0 ^
b0 A
b0 h
b0 r
b0 u
b0 x
b100 $"
b100 E
b100 %"
04
07
#6570
0>"
0K"
b0 8
b0 `
b0 l
b0 w
b1001 n
b1001 z
#6580
b1001 k
b1001 t
#6600
14
17
#6610
b1 W"
b100 S"
b100 M
b100 %
b100 T"
#6620
b100 ~
b100 F
b100 ""
b100 G
b100 }
b100 |
b1 g
b1 =
b1 i
b1 p
b1 s
b1 v
b1 y
b1 Y
b1 [
b1 K
b1 {
b1 J
b1 d
b1000 +"
b1000 ?
b1000 ("
b1000 >
b1000 )"
b101000000010000000000000001 Z"
b101000000010000000000000001 $
b101000000010000000000000001 9
b101000000010000000000000001 !"
b101000000010000000000000001 d"
b1000 N
b1000 #"
b1000 &"
b1000 *"
#6630
b0 A"
b1 /"
b1 ;
b1 Z
b1 H
b1 !
b1 7"
b1 o
b1 6
b1 -"
b1001 W
b1001 )
b1001 8"
b1 n
b1 z
b1 m
b1 q
b1001 ^
b1001 A
b1001 h
b1001 r
b1001 u
b1001 x
#6640
b1 l
b1 w
b1001 n
b1001 z
b1100 $"
b1100 E
b1100 %"
04
07
#6650
b1010 k
b1010 t
#6680
14
17
#6690
b10 W"
b1000 S"
b1000 M
b1000 %
b1000 T"
#6700
b0 ~
b0 F
b0 ""
b0 G
b0 }
b0 |
b0 Y
b0 [
b0 K
b0 {
b1010 L
b1100 +"
b1100 ?
b1100 ("
b1100 >
b1100 )"
b1010000000000000000000000001 Z"
b1010000000000000000000000001 $
b1010000000000000000000000001 9
b1010000000000000000000000001 !"
b1010000000000000000000000001 d"
b1100 N
b1100 #"
b1100 &"
b1100 *"
#6710
b1 F"
1N"
1<"
1"
0<
b1 c
b1 :
b1 e
1V
1(
0X
0S
0f
b1 _
b1 B
b1 a
#6720
b11111111 8
b11111111 `
04
07
#6760
14"
12"
1/
b0 B"
b0 .
b0 0"
1C"
10
b1 F"
b1 I"
14
17
#6800
04
07
#6840
14
17
#6880
04
07
#6920
14
17
#6960
04
07
#7000
14
17
#7040
04
07
#7080
14
17
#7120
04
07
#7160
14
17
#7200
04
07
#7240
14
17
bx00000000 5"
bx00000000 1
bx00000000 9"
#7250
b0 ?"
b1 L"
1K"
b0 ;"
bx00000000 ="
#7280
04
07
#7320
14
17
#7360
04
07
#7400
14
17
#7440
04
07
#7480
14
17
#7520
04
07
#7560
14
17
#7600
04
07
#7640
14
17
bx0000000000000000 5"
bx0000000000000000 1
bx0000000000000000 9"
#7650
b0 ?"
b1 L"
bx0000000000000000 ="
#7680
04
07
#7720
14
17
#7760
04
07
#7800
14
17
#7840
04
07
#7880
14
17
#7920
04
07
#7960
14
17
#8000
04
07
#8040
14
17
bx000000000000000000000000 5"
bx000000000000000000000000 1
bx000000000000000000000000 9"
#8050
b0 ?"
b1 L"
bx000000000000000000000000 ="
#8080
04
07
#8120
14
17
#8160
04
07
#8200
14
17
#8240
04
07
#8280
14
17
#8320
04
07
#8360
14
17
#8400
04
07
#8440
0V
0(
0<"
0"
bx B"
bx .
bx 0"
0C"
00
b0 I"
b1 F"
14
17
04"
02"
0/
b0 5"
b0 1
b0 9"
#8450
b0 ?"
b1 L"
b0 ="
#8459
b0 F"
1@"
#8460
0H"
#8480
04
07
#8520
14
17
#8530
b11 W"
b1100 S"
0N"
b1 ?"
1>"
b1 L"
b100100000000 ="
b1100 M
b1100 %
b1100 T"
#8540
b1 P
b1 \
b0 Q
b0 ]
b0 J
b0 d
b1011 L
b10000 +"
b10000 ?
b10000 ("
b10000 >
b10000 )"
b1011000000000000000100000000 Z"
b1011000000000000000100000000 $
b1011000000000000000100000000 9
b1011000000000000000100000000 !"
b1011000000000000000100000000 d"
b10000 N
b10000 #"
b10000 &"
b10000 *"
#8550
1N"
1<"
1"
b0 g
b0 =
b0 i
b0 p
b0 s
b0 v
b0 y
1V
1(
1S
1f
#8560
1D
b0 G"
b0 /"
b0 ;
b0 Z
b0 H
b0 !
b0 7"
b1001 c
b1001 :
b1001 e
b0 o
b0 6
b0 -"
b1 W
b1 )
b1 8"
b0 l
b0 w
b0 m
b0 q
b1001 _
b1001 B
b1001 a
b1 ^
b1 A
b1 h
b1 r
b1 u
b1 x
b10000 $"
b10000 E
b10000 %"
04
07
#8569
0V
0(
0<"
0"
#8570
b11110111 8
b11110111 `
b1 n
b1 z
#8580
b1 k
b1 t
#8600
14
17
#8610
b0 W"
b1 U"
b10000 S"
b10000 M
b10000 %
b10000 T"
0N"
b1 ?"
b1 L"
b100100000001 ="
#8620
b1 `"
b10100 +"
b10100 ?
b10100 ("
b10100 >
b10100 )"
bx d"
1Y"
1#
0]"
bx \"
bx ["
0b"
b10100 N
b10100 #"
b10100 &"
b10100 *"
#8640
04
07
#8680
1Q"
1P"
1+
b1 ^"
b1 *
b1 O"
1_"
1,
b1 `"
b1 a"
14
17
#8720
04
07
#8760
14
17
#8800
04
07
#8840
14
17
#8880
04
07
#8920
14
17
#8960
04
07
#9000
14
17
#9040
04
07
#9080
14
17
#9120
04
07
#9160
14
17
b1011000000000000000100000000000010100000000000000000000000010000010100000001000000000000000100000101000000000000000000000001 R"
b1011000000000000000100000000000010100000000000000000000000010000010100000001000000000000000100000101000000000000000000000001 -
b1011000000000000000100000000000010100000000000000000000000010000010100000001000000000000000100000101000000000000000000000001 V"
#9170
b11 c"
1b"
b0 ["
b1011000000000000000100000000000010100000000000000000000000010000010100000001000000000000000100000101000000000000000000000001 \"
#9180
b101000000000000000000000001 d"
#9200
04
07
#9240
14
17
#9280
04
07
#9320
14
17
#9360
04
07
#9400
14
17
#9440
04
07
#9480
14
17
#9520
04
07
#9560
14
17
b1011000000000000000100000000000010100000000000000000000000010000010100000001000000000000000100000101000000000000000000000001 R"
#9600
04
07
#9640
14
17
#9680
04
07
#9720
14
17
#9760
04
07
#9800
14
17
#9840
04
07
#9880
14
17
#9920
04
07
#9960
14
17
b1011000000000000000100000000000010100000000000000000000000010000010100000001000000000000000100000101000000100000000000000001 R"
b1011000000000000000100000000000010100000000000000000000000010000010100000001000000000000000100000101000000100000000000000001 -
b1011000000000000000100000000000010100000000000000000000000010000010100000001000000000000000100000101000000100000000000000001 V"
#9970
b11 c"
b1011000000000000000100000000000010100000000000000000000000010000010100000001000000000000000100000101000000100000000000000001 \"
#9980
b101000000100000000000000001 d"
#10000
04
07
#10040
14
17
#10080
04
07
#10120
14
17
#10160
04
07
#10200
14
17
#10240
04
07
#10280
14
17
#10320
04
07
#10360
14
17
b1011000000000000000100000000000010100000000000000000000000010000010100000001000000000000000100001000000000100000000000000001 R"
b1011000000000000000100000000000010100000000000000000000000010000010100000001000000000000000100001000000000100000000000000001 -
b1011000000000000000100000000000010100000000000000000000000010000010100000001000000000000000100001000000000100000000000000001 V"
#10370
b11 c"
b1011000000000000000100000000000010100000000000000000000000010000010100000001000000000000000100001000000000100000000000000001 \"
#10380
b1000000000100000000000000001 d"
#10400
04
07
#10440
14
17
#10480
04
07
#10520
14
17
#10560
04
07
#10600
14
17
#10640
04
07
#10680
14
17
#10720
04
07
#10760
14
17
b1011000000000000000100000000000010100000000000000000000000010000010100000001000000000000000100001000000000100000000000000001 R"
#10800
04
07
#10840
14
17
#10880
04
07
#10920
14
17
#10960
04
07
#11000
14
17
#11040
04
07
#11080
14
17
#11120
04
07
#11160
14
17
b1011000000000000000100000000000010100000000000000000000000010000010100000001000000000000000100001000000000100000000000000001 R"
#11200
04
07
#11240
14
17
#11280
04
07
#11320
14
17
#11360
04
07
#11400
14
17
#11440
04
07
#11480
14
17
#11520
04
07
#11560
14
17
b1011000000000000000100000000000010100000000000000000000000010000010100000011000000000000000100001000000000100000000000000001 R"
b1011000000000000000100000000000010100000000000000000000000010000010100000011000000000000000100001000000000100000000000000001 -
b1011000000000000000100000000000010100000000000000000000000010000010100000011000000000000000100001000000000100000000000000001 V"
#11570
b11 c"
b1011000000000000000100000000000010100000000000000000000000010000010100000011000000000000000100001000000000100000000000000001 \"
#11600
04
07
#11640
14
17
#11680
04
07
#11720
14
17
#11760
04
07
#11800
14
17
#11840
04
07
#11880
14
17
#11920
04
07
#11960
14
17
b1011000000000000000100000000000010100000000000000000000000010000100000000011000000000000000100001000000000100000000000000001 R"
b1011000000000000000100000000000010100000000000000000000000010000100000000011000000000000000100001000000000100000000000000001 -
b1011000000000000000100000000000010100000000000000000000000010000100000000011000000000000000100001000000000100000000000000001 V"
#11970
b11 c"
b1011000000000000000100000000000010100000000000000000000000010000100000000011000000000000000100001000000000100000000000000001 \"
#12000
04
07
#12040
14
17
#12080
04
07
#12120
14
17
#12160
04
07
#12200
14
17
#12240
04
07
#12280
14
17
#12320
04
07
#12360
14
17
b1011000000000000000100000000000010100000000000000000000000010000100000000011000000000000000100001000000000100000000000000001 R"
#12400
04
07
#12440
14
17
#12480
04
07
#12520
14
17
#12560
04
07
#12600
14
17
#12640
04
07
#12680
14
17
#12720
04
07
#12760
14
17
b1011000000000000000100000000000010100000000000000000000000010000100000000011000000000000000100001000000000100000000000000001 R"
#12800
04
07
#12840
14
17
#12880
04
07
#12920
14
17
#12960
04
07
#13000
14
17
#13040
04
07
#13080
14
17
#13120
04
07
#13160
14
17
b1011000000000000000100000000000010100000010000000000000000010000100000000011000000000000000100001000000000100000000000000001 R"
b1011000000000000000100000000000010100000010000000000000000010000100000000011000000000000000100001000000000100000000000000001 -
b1011000000000000000100000000000010100000010000000000000000010000100000000011000000000000000100001000000000100000000000000001 V"
#13170
b11 c"
b1011000000000000000100000000000010100000010000000000000000010000100000000011000000000000000100001000000000100000000000000001 \"
#13200
04
07
#13240
14
17
#13280
04
07
#13320
14
17
#13360
04
07
#13400
14
17
#13440
04
07
#13480
14
17
#13520
04
07
#13560
14
17
b1011000000000000000100000000000000010000010000000000000000010000100000000011000000000000000100001000000000100000000000000001 R"
b1011000000000000000100000000000000010000010000000000000000010000100000000011000000000000000100001000000000100000000000000001 -
b1011000000000000000100000000000000010000010000000000000000010000100000000011000000000000000100001000000000100000000000000001 V"
#13570
b11 c"
b1011000000000000000100000000000000010000010000000000000000010000100000000011000000000000000100001000000000100000000000000001 \"
#13600
04
07
#13640
14
17
#13680
04
07
#13720
14
17
#13760
04
07
#13800
14
17
#13840
04
07
#13880
14
17
#13920
04
07
#13960
14
17
b1011000000000000000100000010000000010000010000000000000000010000100000000011000000000000000100001000000000100000000000000001 R"
b1011000000000000000100000010000000010000010000000000000000010000100000000011000000000000000100001000000000100000000000000001 -
b1011000000000000000100000010000000010000010000000000000000010000100000000011000000000000000100001000000000100000000000000001 V"
#13970
b11 c"
b1011000000000000000100000010000000010000010000000000000000010000100000000011000000000000000100001000000000100000000000000001 \"
#14000
04
07
#14040
14
17
#14080
04
07
#14120
14
17
#14160
04
07
#14200
14
17
#14240
04
07
#14280
14
17
#14320
04
07
#14360
14
17
b1011000000000000010000000010000000010000010000000000000000010000100000000011000000000000000100001000000000100000000000000001 R"
b1011000000000000010000000010000000010000010000000000000000010000100000000011000000000000000100001000000000100000000000000001 -
b1011000000000000010000000010000000010000010000000000000000010000100000000011000000000000000100001000000000100000000000000001 V"
#14370
b11 c"
b1011000000000000010000000010000000010000010000000000000000010000100000000011000000000000000100001000000000100000000000000001 \"
#14400
04
07
#14440
14
17
#14480
04
07
#14520
14
17
#14560
04
07
#14600
14
17
#14640
04
07
#14680
14
17
#14720
04
07
#14760
14
17
b1011000000000000010000000010000000010000010000000000000000010000100000000011000000000000000100001000000000100000000000000001 R"
#14800
04
07
#14840
14
17
#14880
04
07
#14920
14
17
#14960
04
07
#15000
14
17
#15040
04
07
#15080
14
17
#15120
04
07
#15160
0Y"
0#
bx ^"
bx *
bx O"
0_"
0,
b0 a"
b1 `"
14
17
0Q"
0P"
0+
b1011000000000000010000000010000000010000010000000000000000010000100000000011000000000000000100001000000000100000000000000001 R"
#15179
b0 `"
1]"
#15189
b1000 ~
b1000 F
b1000 ""
b1000 G
b1000 }
b1000 |
b1 g
b1 =
b1 i
b1 p
b1 s
b1 v
b1 y
b10 Y
b10 [
b0 P
b0 \
b1 Q
b1 ]
b10 K
b10 {
b1 J
b1 d
b1000 L
b1000000000100000000000000001 Z"
b1000000000100000000000000001 $
b1000000000100000000000000001 9
b1000000000100000000000000001 !"
